<?xml version="1.0" encoding="UTF-8" standalone="no"?>
<!-- Created with Inkscape (http://www.inkscape.org/) -->

<svg
   xmlns:dc="http://purl.org/dc/elements/1.1/"
   xmlns:cc="http://creativecommons.org/ns#"
   xmlns:rdf="http://www.w3.org/1999/02/22-rdf-syntax-ns#"
   xmlns:svg="http://www.w3.org/2000/svg"
   xmlns="http://www.w3.org/2000/svg"
   xmlns:sodipodi="http://sodipodi.sourceforge.net/DTD/sodipodi-0.dtd"
   xmlns:inkscape="http://www.inkscape.org/namespaces/inkscape"
   width="744.09448819"
   height="1052.3622047"
   id="svg2"
   version="1.1"
   inkscape:version="0.48.4 r9939"
   sodipodi:docname="cyphers.svg">
  <defs
     id="defs4" />
  <sodipodi:namedview
     id="base"
     pagecolor="#ffffff"
     bordercolor="#666666"
     borderopacity="1.0"
     inkscape:pageopacity="0.0"
     inkscape:pageshadow="2"
     inkscape:zoom="0.70710678"
     inkscape:cx="890.45645"
     inkscape:cy="479.09594"
     inkscape:document-units="px"
     inkscape:current-layer="layer1"
     showgrid="false"
     inkscape:window-width="1912"
     inkscape:window-height="1029"
     inkscape:window-x="0"
     inkscape:window-y="27"
     inkscape:window-maximized="1" />
  <metadata
     id="metadata7">
    <rdf:RDF>
      <cc:Work
         rdf:about="">
        <dc:format>image/svg+xml</dc:format>
        <dc:type
           rdf:resource="http://purl.org/dc/dcmitype/StillImage" />
        <dc:title />
      </cc:Work>
    </rdf:RDF>
  </metadata>
  <g
     inkscape:label="Layer 1"
     inkscape:groupmode="layer"
     id="layer1">
    <flowRoot
       xml:space="preserve"
       id="flowRoot3064"
       style="font-size:40px;font-style:normal;font-variant:normal;font-weight:normal;font-stretch:normal;line-height:125%;letter-spacing:0px;word-spacing:0px;fill:#000000;fill-opacity:1;stroke:none;font-family:Lohit Malayalam;-inkscape-font-specification:Lohit Malayalam"
       transform="matrix(1.3980018,0,0,1.3980018,-20.5692,-46.043215)"><flowRegion
         id="flowRegion3066"><rect
           id="rect3068"
           width="674.28571"
           height="150"
           x="32.857143"
           y="33.790752" /></flowRegion><flowPara
         id="flowPara3070"
         style="font-size:48px;font-style:normal;font-variant:normal;font-weight:normal;font-stretch:normal;font-family:Kingthings Extortion;-inkscape-font-specification:Kingthings Extortion">Codes &amp; Cyphers</flowPara></flowRoot>    <flowRoot
       xml:space="preserve"
       id="flowRoot3854"
       style="font-size:40px;font-style:normal;font-variant:normal;font-weight:normal;font-stretch:normal;line-height:125%;letter-spacing:0px;word-spacing:0px;fill:#000000;fill-opacity:1;stroke:none;font-family:Lohit Malayalam;-inkscape-font-specification:Lohit Malayalam"
       transform="translate(-1.4285714,-20)"><flowRegion
         id="flowRegion3856"><rect
           id="rect3858"
           width="702.85712"
           height="102.85715"
           x="21.428572"
           y="123.79076" /></flowRegion><flowPara
         id="flowPara3860"
         style="font-size:24px;font-style:normal;font-variant:normal;font-weight:normal;font-stretch:normal;font-family:Liberation Serif;-inkscape-font-specification:Liberation Serif">Codes and cyphers have been used throughout history to send secret messages. It is very important that you keep the key to solving your code or cypher a secret so only the intendend recipient can decode it! </flowPara><flowPara
         id="flowPara3862"
         style="font-size:24px;font-style:normal;font-variant:normal;font-weight:normal;font-stretch:normal;font-family:Liberation Serif;-inkscape-font-specification:Liberation Serif" /><flowPara
         id="flowPara3864"
         style="font-size:24px;font-style:normal;font-variant:normal;font-weight:normal;font-stretch:normal;font-family:Liberation Serif;-inkscape-font-specification:Liberation Serif" /></flowRoot>    <rect
       style="fill:#2e3436;fill-opacity:1;stroke:none"
       id="rect3932"
       width="529.49493"
       height="54.285713"
       x="-7.8571434"
       y="266.93362" />
    <text
       xml:space="preserve"
       style="font-size:40px;font-style:normal;font-variant:normal;font-weight:normal;font-stretch:normal;line-height:125%;letter-spacing:0px;word-spacing:0px;fill:#ffffff;fill-opacity:1;stroke:none;font-family:Lohit Malayalam;-inkscape-font-specification:Lohit Malayalam"
       x="23.224796"
       y="303.61472"
       id="text3871"
       sodipodi:linespacing="125%"><tspan
         sodipodi:role="line"
         id="tspan3873"
         x="23.224796"
         y="303.61472"
         style="font-style:normal;font-variant:normal;font-weight:500;font-stretch:normal;fill:#ffffff;fill-opacity:1;font-family:Nouveau IBM;-inkscape-font-specification:Nouveau IBM Medium">Code: Reverse Alphabet</tspan></text>
    <g
       id="g3917"
       style="fill:#babdb6"
       transform="translate(0,12)">
      <rect
         ry="0"
         rx="0"
         y="332.36218"
         x="-17.142857"
         height="86.428574"
         width="53.57143"
         id="rect3891"
         style="fill:#babdb6;fill-opacity:1;stroke:none" />
      <rect
         style="fill:#babdb6;fill-opacity:1;stroke:none"
         id="rect3893"
         width="28.57143"
         height="86.428574"
         x="62.857147"
         y="332.36218"
         rx="0"
         ry="0" />
      <rect
         ry="0"
         rx="0"
         y="332.36218"
         x="118.85715"
         height="86.428574"
         width="28.57143"
         id="rect3895"
         style="fill:#babdb6;fill-opacity:1;stroke:none" />
      <rect
         style="fill:#babdb6;fill-opacity:1;stroke:none"
         id="rect3897"
         width="28.57143"
         height="86.428574"
         x="174.85715"
         y="332.36218"
         rx="0"
         ry="0" />
      <rect
         ry="0"
         rx="0"
         y="332.36218"
         x="232.85715"
         height="86.428574"
         width="28.57143"
         id="rect3899"
         style="fill:#babdb6;fill-opacity:1;stroke:none" />
      <rect
         style="fill:#babdb6;fill-opacity:1;stroke:none"
         id="rect3901"
         width="28.57143"
         height="86.428574"
         x="288.85715"
         y="332.36218"
         rx="0"
         ry="0" />
      <rect
         ry="0"
         rx="0"
         y="332.36218"
         x="344.85715"
         height="86.428574"
         width="28.57143"
         id="rect3903"
         style="fill:#babdb6;fill-opacity:1;stroke:none" />
      <rect
         style="fill:#babdb6;fill-opacity:1;stroke:none"
         id="rect3905"
         width="28.57143"
         height="86.428574"
         x="400.85715"
         y="332.36218"
         rx="0"
         ry="0" />
      <rect
         ry="0"
         rx="0"
         y="332.36218"
         x="456.85715"
         height="86.428574"
         width="28.57143"
         id="rect3907"
         style="fill:#babdb6;fill-opacity:1;stroke:none" />
      <rect
         style="fill:#babdb6;fill-opacity:1;stroke:none"
         id="rect3909"
         width="28.57143"
         height="86.428574"
         x="512.85718"
         y="332.36218"
         rx="0"
         ry="0" />
      <rect
         ry="0"
         rx="0"
         y="332.36218"
         x="568.85718"
         height="86.428574"
         width="28.57143"
         id="rect3911"
         style="fill:#babdb6;fill-opacity:1;stroke:none" />
      <rect
         style="fill:#babdb6;fill-opacity:1;stroke:none"
         id="rect3913"
         width="28.57143"
         height="86.428574"
         x="624.85718"
         y="332.36218"
         rx="0"
         ry="0" />
      <rect
         ry="0"
         rx="0"
         y="332.36218"
         x="680.85718"
         height="86.428574"
         width="28.57143"
         id="rect3915"
         style="fill:#babdb6;fill-opacity:1;stroke:none" />
    </g>
    <text
       xml:space="preserve"
       style="font-size:40px;font-style:normal;font-variant:normal;font-weight:normal;font-stretch:normal;line-height:125%;letter-spacing:0px;word-spacing:0px;fill:#000000;fill-opacity:1;stroke:none;font-family:Lohit Malayalam;-inkscape-font-specification:Lohit Malayalam"
       x="8.5714302"
       y="375.79077"
       id="text3885"
       sodipodi:linespacing="125%"><tspan
         sodipodi:role="line"
         id="tspan3887"
         x="8.5714302"
         y="375.79077"
         style="font-style:normal;font-variant:normal;font-weight:normal;font-stretch:normal;letter-spacing:4.1799984px;word-spacing:0px;font-family:Liberation Mono;-inkscape-font-specification:Liberation Mono"
         dx="0">ABCDEFGHIJKLMNOPQRSTUVWXYZ</tspan><tspan
         sodipodi:role="line"
         x="8.5714302"
         y="425.79077"
         id="tspan3889"
         style="font-style:normal;font-variant:normal;font-weight:normal;font-stretch:normal;letter-spacing:4.1799984px;word-spacing:0px;font-family:Liberation Mono;-inkscape-font-specification:Liberation Mono">ZYXWVUTSRQPONMLKJIHGFEDCBA</tspan></text>
    <path
       style="fill:none;stroke:#2e3436;stroke-width:3;stroke-linecap:butt;stroke-linejoin:miter;stroke-miterlimit:4;stroke-opacity:1;stroke-dasharray:none"
       d="m 514.28571,294.07647 254.28572,0"
       id="path3940"
       inkscape:connector-curvature="0" />
    <flowRoot
       xml:space="preserve"
       id="flowRoot3944"
       style="fill:black;stroke:none;stroke-opacity:1;stroke-width:1px;stroke-linejoin:miter;stroke-linecap:butt;fill-opacity:1;font-family:Lohit Malayalam;font-style:normal;font-weight:normal;font-size:40px;line-height:125%;letter-spacing:0px;word-spacing:0px;-inkscape-font-specification:Lohit Malayalam;font-stretch:normal;font-variant:normal"><flowRegion
         id="flowRegion3946"><rect
           id="rect3948"
           width="65.714287"
           height="64.285713"
           x="-661.42859"
           y="830.93359" /></flowRegion><flowPara
         id="flowPara3950" /></flowRoot>    <g
       id="g4028"
       transform="translate(392.13914,178.54416)">
      <rect
         y="530.64789"
         x="100"
         height="298.14285"
         width="45"
         id="rect4024"
         style="fill:#e8e8e8;fill-opacity:1;stroke:none" />
      <path
         id="rect4007"
         d="m 2.84375,479.5 0,50 0,298.5625 51.4375,0 0,-298.5625 235.71875,0 0,-50 -235.71875,0 -51.4375,0 z"
         style="fill:#ffffff;fill-opacity:1;stroke:#2e3436;stroke-width:3;stroke-linecap:round;stroke-linejoin:round;stroke-miterlimit:4;stroke-opacity:1;stroke-dasharray:none;stroke-dashoffset:0"
         inkscape:connector-curvature="0" />
      <rect
         style="fill:#e8e8e8;fill-opacity:1;stroke:none"
         id="rect4026"
         width="45"
         height="298.14285"
         x="196"
         y="530.64789" />
      <text
         sodipodi:linespacing="125%"
         id="text3987"
         y="516.64789"
         x="14.285719"
         style="font-size:40px;font-style:normal;font-variant:normal;font-weight:normal;font-stretch:normal;line-height:125%;letter-spacing:0px;word-spacing:0px;fill:#000000;fill-opacity:1;stroke:none;font-family:Lohit Malayalam;-inkscape-font-specification:Lohit Malayalam"
         xml:space="preserve"><tspan
           style="font-style:normal;font-variant:normal;font-weight:normal;font-stretch:normal;font-family:Liberation Mono;-inkscape-font-specification:Liberation Mono"
           id="tspan3991"
           y="516.64789"
           x="14.285719"
           sodipodi:role="line">  1 2 3 4 5</tspan><tspan
           style="font-style:normal;font-variant:normal;font-weight:normal;font-stretch:normal;font-family:Liberation Mono;-inkscape-font-specification:Liberation Mono"
           id="tspan3993"
           y="566.64789"
           x="14.285719"
           sodipodi:role="line">A A B C D E</tspan><tspan
           style="font-style:normal;font-variant:normal;font-weight:normal;font-stretch:normal;font-family:Liberation Mono;-inkscape-font-specification:Liberation Mono"
           id="tspan3995"
           y="616.64789"
           x="14.285719"
           sodipodi:role="line">B F G H I J</tspan><tspan
           style="font-style:normal;font-variant:normal;font-weight:normal;font-stretch:normal;font-family:Liberation Mono;-inkscape-font-specification:Liberation Mono"
           id="tspan3997"
           y="666.64789"
           x="14.285719"
           sodipodi:role="line">C K L M N O</tspan><tspan
           style="font-style:normal;font-variant:normal;font-weight:normal;font-stretch:normal;font-family:Liberation Mono;-inkscape-font-specification:Liberation Mono"
           id="tspan3999"
           y="716.64789"
           x="14.285719"
           sodipodi:role="line">D P Q R S T</tspan><tspan
           style="font-style:normal;font-variant:normal;font-weight:normal;font-stretch:normal;font-family:Liberation Mono;-inkscape-font-specification:Liberation Mono"
           id="tspan4001"
           y="766.64789"
           x="14.285719"
           sodipodi:role="line">E U V W X Y</tspan><tspan
           style="font-style:normal;font-variant:normal;font-weight:normal;font-stretch:normal;font-family:Liberation Mono;-inkscape-font-specification:Liberation Mono"
           id="tspan4003"
           y="816.64789"
           x="14.285719"
           sodipodi:role="line">F Z</tspan></text>
      <text
         sodipodi:linespacing="125%"
         id="text4012"
         y="529.26282"
         x="3.3654482"
         style="font-size:69.50617218px;font-style:normal;font-variant:normal;font-weight:normal;font-stretch:normal;line-height:125%;letter-spacing:0px;word-spacing:0px;fill:#000000;fill-opacity:1;stroke:none;font-family:Lohit Malayalam;-inkscape-font-specification:Lohit Malayalam"
         xml:space="preserve"><tspan
           id="tspan4018"
           style="font-style:normal;font-variant:normal;font-weight:normal;font-stretch:normal;font-family:Modern Pictograms;-inkscape-font-specification:Modern Pictograms"
           y="529.26282"
           x="3.3654482"
           sodipodi:role="line">q</tspan></text>
    </g>
    <text
       xml:space="preserve"
       style="font-size:40px;font-style:normal;font-variant:normal;font-weight:normal;font-stretch:normal;line-height:125%;letter-spacing:0px;word-spacing:0px;fill:#000000;fill-opacity:1;stroke:none;font-family:Lohit Malayalam;-inkscape-font-specification:Lohit Malayalam"
       x="948"
       y="948.36218"
       id="text4077"
       sodipodi:linespacing="125%"><tspan
         sodipodi:role="line"
         id="tspan4079"
         x="948"
         y="948.36218" /></text>
    <rect
       style="fill:#2e3436;fill-opacity:1;stroke:none"
       id="rect4081"
       width="415.20923"
       height="54.285713"
       x="355.08609"
       y="554.64929" />
    <path
       style="fill:none;stroke:#2e3436;stroke-width:3.56341767;stroke-linecap:butt;stroke-linejoin:miter;stroke-miterlimit:4;stroke-opacity:1;stroke-dasharray:none"
       d="m 329.23075,1061.2393 1.19279,-476.58996 71.90347,0"
       id="path4083"
       inkscape:connector-curvature="0"
       sodipodi:nodetypes="ccc" />
    <text
       xml:space="preserve"
       style="font-size:40px;font-style:normal;font-variant:normal;font-weight:normal;font-stretch:normal;line-height:125%;letter-spacing:0px;word-spacing:0px;fill:#ffffff;fill-opacity:1;stroke:none;font-family:Lohit Malayalam;-inkscape-font-specification:Lohit Malayalam"
       x="388.88162"
       y="591.33044"
       id="text4085"
       sodipodi:linespacing="125%"><tspan
         sodipodi:role="line"
         id="tspan4087"
         x="388.88162"
         y="591.33044"
         style="font-style:normal;font-variant:normal;font-weight:500;font-stretch:normal;fill:#ffffff;fill-opacity:1;font-family:Nouveau IBM;-inkscape-font-specification:Nouveau IBM Medium">Code: The Grid</tspan></text>
    <flowRoot
       transform="translate(-2.8427849,470.7321)"
       style="font-size:40px;font-style:normal;font-variant:normal;font-weight:normal;font-stretch:normal;line-height:125%;letter-spacing:0px;word-spacing:0px;fill:#000000;fill-opacity:1;stroke:none;font-family:Lohit Malayalam;-inkscape-font-specification:Lohit Malayalam"
       id="flowRoot5054"
       xml:space="preserve"><flowRegion
         id="flowRegion5056"><rect
           y="123.79076"
           x="21.428572"
           height="436.61151"
           width="268.69354"
           id="rect5058" /></flowRegion><flowPara
         style="font-size:24px;font-style:normal;font-variant:normal;font-weight:normal;font-stretch:normal;text-align:start;text-anchor:start;font-family:Liberation Serif;-inkscape-font-specification:Liberation Serif"
         id="flowPara5064">Decode this word, written in <flowSpan
   style="font-weight:bold;text-align:start;text-anchor:start;-inkscape-font-specification:Liberation Serif Bold"
   id="flowSpan5071">Reverse Alphabet Code</flowSpan></flowPara></flowRoot>    <text
       xml:space="preserve"
       style="font-size:40px;font-style:normal;font-variant:normal;font-weight:normal;font-stretch:normal;line-height:125%;letter-spacing:0px;word-spacing:0px;fill:#000000;fill-opacity:1;stroke:none;font-family:Lohit Malayalam;-inkscape-font-specification:Lohit Malayalam"
       x="67.882256"
       y="712.95093"
       id="text5073"
       sodipodi:linespacing="125%"><tspan
         sodipodi:role="line"
         id="tspan5075"
         x="67.882256"
         y="712.95093"
         style="-inkscape-font-specification:Liberation Mono;font-family:Liberation Mono;font-weight:normal;font-style:normal;font-stretch:normal;font-variant:normal">HVXIVG</tspan></text>
    <flowRoot
       xml:space="preserve"
       id="flowRoot5077"
       style="font-size:40px;font-style:normal;font-variant:normal;font-weight:normal;font-stretch:normal;line-height:125%;letter-spacing:0px;word-spacing:0px;fill:#000000;fill-opacity:1;stroke:none;font-family:Lohit Malayalam;-inkscape-font-specification:Lohit Malayalam"
       transform="translate(-2.8427849,710.7321)"><flowRegion
         id="flowRegion5079"><rect
           id="rect5081"
           width="268.69354"
           height="436.61151"
           x="21.428572"
           y="123.79076" /></flowRegion><flowPara
         id="flowPara5083"
         style="font-size:24px;font-style:normal;font-variant:normal;font-weight:normal;font-stretch:normal;text-align:start;text-anchor:start;font-family:Liberation Serif;-inkscape-font-specification:Liberation Serif">Decode this word, written in<flowSpan
   id="flowSpan5085"
   style="font-weight:bold;text-align:start;text-anchor:start;-inkscape-font-specification:Liberation Serif Bold"> Grid Code</flowSpan></flowPara></flowRoot>    <text
       sodipodi:linespacing="125%"
       id="text5091"
       y="772.95093"
       x="67.882256"
       style="font-size:40px;font-style:normal;font-variant:normal;font-weight:normal;font-stretch:normal;line-height:125%;letter-spacing:0px;word-spacing:0px;fill:#000000;fill-opacity:1;stroke:none;font-family:Lohit Malayalam;-inkscape-font-specification:Lohit Malayalam"
       xml:space="preserve"><tspan
         y="772.95093"
         x="67.882256"
         id="tspan5093"
         sodipodi:role="line"
         style="-inkscape-font-specification:Liberation Mono;font-family:Liberation Mono;font-weight:normal;font-style:normal;font-stretch:normal;font-variant:normal">______</tspan></text>
    <text
       sodipodi:linespacing="125%"
       id="text5095"
       y="952.95093"
       x="27.882256"
       style="font-size:40px;font-style:normal;font-variant:normal;font-weight:normal;font-stretch:normal;line-height:125%;letter-spacing:0px;word-spacing:0px;fill:#000000;fill-opacity:1;stroke:none;font-family:Lohit Malayalam;-inkscape-font-specification:Lohit Malayalam"
       xml:space="preserve"><tspan
         style="font-style:normal;font-variant:normal;font-weight:normal;font-stretch:normal;font-family:Liberation Mono;-inkscape-font-specification:Liberation Mono"
         y="952.95093"
         x="27.882256"
         id="tspan5097"
         sodipodi:role="line">2C 5C 3A 1C</tspan></text>
    <text
       xml:space="preserve"
       style="font-size:40px;font-style:normal;font-variant:normal;font-weight:normal;font-stretch:normal;line-height:125%;letter-spacing:0px;word-spacing:0px;fill:#000000;fill-opacity:1;stroke:none;font-family:Lohit Malayalam;-inkscape-font-specification:Lohit Malayalam"
       x="27.882256"
       y="1012.9509"
       id="text5099"
       sodipodi:linespacing="125%"><tspan
         style="font-style:normal;font-variant:normal;font-weight:normal;font-stretch:normal;font-family:Liberation Mono;-inkscape-font-specification:Liberation Mono"
         sodipodi:role="line"
         id="tspan5101"
         x="27.882256"
         y="1012.9509">___________</tspan></text>
  </g>
</svg>
