<?xml version="1.0" encoding="UTF-8" standalone="no"?>
<!-- Created with Inkscape (http://www.inkscape.org/) -->

<svg
   xmlns:dc="http://purl.org/dc/elements/1.1/"
   xmlns:cc="http://creativecommons.org/ns#"
   xmlns:rdf="http://www.w3.org/1999/02/22-rdf-syntax-ns#"
   xmlns:svg="http://www.w3.org/2000/svg"
   xmlns="http://www.w3.org/2000/svg"
   xmlns:sodipodi="http://sodipodi.sourceforge.net/DTD/sodipodi-0.dtd"
   xmlns:inkscape="http://www.inkscape.org/namespaces/inkscape"
   width="317.10107"
   height="73.80352"
   id="svg3595"
   version="1.1"
   inkscape:version="0.48.4 r9939"
   sodipodi:docname="boxback.svg">
  <defs
     id="defs3597" />
  <sodipodi:namedview
     id="base"
     pagecolor="#ffffff"
     bordercolor="#666666"
     borderopacity="1.0"
     inkscape:pageopacity="0.0"
     inkscape:pageshadow="2"
     inkscape:zoom="1.4"
     inkscape:cx="217.93569"
     inkscape:cy="-14.115589"
     inkscape:document-units="px"
     inkscape:current-layer="layer1"
     showgrid="false"
     fit-margin-top="0"
     fit-margin-left="0"
     fit-margin-right="0"
     fit-margin-bottom="0"
     inkscape:window-width="1920"
     inkscape:window-height="1032"
     inkscape:window-x="-2"
     inkscape:window-y="26"
     inkscape:window-maximized="1" />
  <metadata
     id="metadata3600">
    <rdf:RDF>
      <cc:Work
         rdf:about="">
        <dc:format>image/svg+xml</dc:format>
        <dc:type
           rdf:resource="http://purl.org/dc/dcmitype/StillImage" />
        <dc:title />
      </cc:Work>
    </rdf:RDF>
  </metadata>
  <g
     inkscape:label="Layer 1"
     inkscape:groupmode="layer"
     id="layer1"
     transform="translate(68.421123,-412.8714)">
    <path
       style="fill:#ffffff;fill-opacity:1;stroke:none"
       d="m 101.53663,456.11257 c -0.65862,0.92376 -1.734575,1.57274 -2.874995,1.5625 -46.63835,-2.4302 -101.8702851,1.23097 -154.937475,0.125 13.10729,8.92708 33.55644,25.28698 36.78125,27.6875 0.0641,-0.13728 0.0847,-0.15674 0.0312,0.0312 50.019255,-3.80883 88.771465,-4.19 121.74997,-2.8125 5.99609,0.25046 11.78948,0.54986 17.4375,0.90625 8.47203,0.53459 16.5936,1.19001 24.46875,1.90625 0.23112,-0.003 0.46404,0.0155 0.6875,0.0625 0.0101,0.002 0.0212,-0.002 0.0312,0 0.21344,0.0469 0.42426,0.13145 0.625,0.21875 0.0209,0.009 0.0418,0.0216 0.0625,0.0312 0.009,0.004 0.0227,-0.004 0.0312,0 0.21582,0.10117 0.40049,0.2334 0.59375,0.375 0.15091,0.11058 0.30406,0.24344 0.4375,0.375 0.0322,0.0318 0.0627,0.0609 0.0937,0.0937 3.43642,-1.18583 5.88362,-2.62438 7.125,-4.3125 -0.59195,0.05 -1.18078,-0.0159 -1.71875,-0.28125 l -48.34375,-23.75 c -0.793,-0.39041 -1.38281,-1.11094 -1.6875,-1.9375 -0.20161,-0.0916 -0.3894,-0.19205 -0.59375,-0.28125 z"
       id="path3008"
       inkscape:connector-curvature="0" />
    <path
       inkscape:export-ydpi="10.736465"
       inkscape:export-xdpi="10.736465"
       inkscape:export-filename="/home/sxe/pictures/makerbox/pixmaps/makerbox_solid_48px.png"
       sodipodi:nodetypes="ccsccscc"
       inkscape:connector-curvature="0"
       id="path3006"
       d="m 97.870685,450.79147 c -56.01039,-11.06231 -109.470779,-5.55006 -162.843679,0.53125 -1.4627,0.0172 -2.8575,1.05258 -3.2973,2.44762 -0.4398,1.39504 0.109,3.04319 1.2973,3.89613 56.05561,1.85662 115.317539,-2.45731 164.874979,0.125 1.8483,0.0166 3.539895,-1.66739 3.531595,-3.51581 -0.01,-1.84842 -1.714695,-3.51723 -3.562795,-3.48419 z"
       style="font-size:medium;font-style:normal;font-variant:normal;font-weight:normal;font-stretch:normal;text-indent:0;text-align:start;text-decoration:none;line-height:normal;letter-spacing:normal;word-spacing:normal;text-transform:none;direction:ltr;block-progression:tb;writing-mode:lr-tb;text-anchor:start;baseline-shift:baseline;color:#000000;fill:#000000;fill-opacity:1;stroke:none;stroke-width:7;marker:none;visibility:visible;display:inline;overflow:visible;enable-background:accumulate;font-family:Sans;-inkscape-font-specification:Sans" />
    <path
       style="fill:#ffffff;fill-opacity:1;stroke:none"
       d="m 118.39151,442.1191 c 17.4405,-6.30953 55.21822,-31.06826 64.06442,-22.33784 l 60.62243,32.79587 -82.8571,18.92857 c -1.7776,8.39672 -4.98911,5.14824 -6.06092,9.64222 l -49.00979,-28.13633 z"
       id="path6354"
       inkscape:connector-curvature="0"
       sodipodi:nodetypes="ccccccc"
       inkscape:export-filename="/home/sxe/pictures/makerbox/pixmaps/makerbox_solid_48px.png"
       inkscape:export-xdpi="10.736465"
       inkscape:export-ydpi="10.736465" />
    <path
       style="font-size:medium;font-style:normal;font-variant:normal;font-weight:normal;font-stretch:normal;text-indent:0;text-align:start;text-decoration:none;line-height:normal;letter-spacing:normal;word-spacing:normal;text-transform:none;direction:ltr;block-progression:tb;writing-mode:lr-tb;text-anchor:start;baseline-shift:baseline;color:#000000;fill:#000000;fill-opacity:1;stroke:none;stroke-width:7;marker:none;visibility:visible;display:inline;overflow:visible;enable-background:accumulate;font-family:Sans;-inkscape-font-specification:Sans"
       d="m 170.04053,414.40294 c -0.4246,0.0492 0.6752,2.70237 0.2964,2.90038 -40.3244,13.11241 -55.0086,19.52169 -60.5777,27.28712 -1.6362,0.8263 -2.3732,3.06688 -1.5469,4.70312 0.8263,1.63625 3.0669,2.37318 4.7032,1.54688 l 59.0625,-29.8125 c 1.4725,-0.71534 2.2896,-2.55974 1.8301,-4.13104 -0.4595,-1.57131 -2.1417,-2.68479 -3.7676,-2.49396 z"
       id="path5643"
       inkscape:connector-curvature="0"
       sodipodi:nodetypes="cccsccsc"
       inkscape:export-filename="/home/sxe/pictures/makerbox/pixmaps/makerbox_solid_48px.png"
       inkscape:export-xdpi="10.736465"
       inkscape:export-ydpi="10.736465" />
    <path
       style="font-size:medium;font-style:normal;font-variant:normal;font-weight:normal;font-stretch:normal;text-indent:0;text-align:start;text-decoration:none;line-height:normal;letter-spacing:normal;word-spacing:normal;text-transform:none;direction:ltr;block-progression:tb;writing-mode:lr-tb;text-anchor:start;baseline-shift:baseline;color:#000000;fill:#000000;fill-opacity:1;stroke:none;stroke-width:7;marker:none;visibility:visible;display:inline;overflow:visible;enable-background:accumulate;font-family:Sans;-inkscape-font-specification:Sans"
       d="m 245.16553,447.71544 c -0.5405,0.002 -1.08,0.13162 -1.5625,0.375 -10.1635,4.88482 -27.7683,1.99697 -46.9958,5.35041 -9.6137,1.67672 -18.8176,3.57075 -26.3125,6.3125 -6.0201,2.20226 -14.6459,10.57453 -17.6917,14.74334 -3.4276,-11.35749 -21.9598,-17.68007 -45.4688,-22.34375 -1.6444,-0.8101 -3.8777,-0.0509 -4.6877,1.59364 -0.81,1.6445 -0.051,3.87775 1.594,4.68761 l 48.3437,23.75 c 1.7365,0.85654 4.1132,-0.0694 4.8125,-1.875 1.1269,-2.89272 5.2482,-5.94778 11.9688,-8.40625 6.7205,-2.45847 15.6245,-4.34848 25.0937,-6 18.9385,-3.30303 39.8946,-5.50162 52.375,-11.5 1.4457,-0.6564 2.3124,-2.38731 1.9718,-3.93809 -0.3406,-1.55078 -1.8528,-2.75923 -3.4405,-2.74941 z"
       id="path5645"
       inkscape:connector-curvature="0"
       sodipodi:nodetypes="ccssccscccsscsc"
       inkscape:export-filename="/home/sxe/pictures/makerbox/pixmaps/makerbox_solid_48px.png"
       inkscape:export-xdpi="10.736465"
       inkscape:export-ydpi="10.736465" />
    <path
       style="font-size:medium;font-style:normal;font-variant:normal;font-weight:normal;font-stretch:normal;text-indent:0;text-align:start;text-decoration:none;line-height:normal;letter-spacing:normal;word-spacing:normal;text-transform:none;direction:ltr;block-progression:tb;writing-mode:lr-tb;text-anchor:start;baseline-shift:baseline;color:#000000;fill:#000000;fill-opacity:1;stroke:none;stroke-width:7;marker:none;visibility:visible;display:inline;overflow:visible;enable-background:accumulate;font-family:Sans;-inkscape-font-specification:Sans"
       d="m 180.25923,412.87169 c -1.568,-0.0215 -3.074,1.14318 -3.4476,2.66616 -0.3735,1.52298 0.4226,3.25235 1.8226,3.95884 l 57.875,30.8125 c 1.6199,0.85903 3.8753,0.16676 4.7344,-1.45313 0.859,-1.61988 0.1667,-3.87534 -1.4531,-4.73437 -23.17,-10.89303 -64.977,-24.76797 -57.8438,-30.8125 -0.5139,-0.2843 -1.1002,-0.43632 -1.6875,-0.4375 z"
       id="path5787"
       inkscape:connector-curvature="0"
       sodipodi:nodetypes="csccsccc"
       inkscape:export-filename="/home/sxe/pictures/makerbox/pixmaps/makerbox_solid_48px.png"
       inkscape:export-xdpi="10.736465"
       inkscape:export-ydpi="10.736465" />
  </g>
</svg>
